{"data":[{"categories":[{"id":1228039269,"name":"Test Category"}],"custom_id":"SKU-A","display_id":104,"id":"dddddddd-dddd-4ddd-8ddd-dddddddddddd","image":null,"inserted_at":"2025-12-27T06:52:08","is_published":null,"is_sell_negative":true,"manipulation_warehouses":["11111111-1111-4111-8111-111111111111"],"materials":[],"measure_group_id":null,"name":"Test Product D","note":null,"note_product":"","product_attributes":[],"supplier_product_ids":[307006934],"tags":[],"type":"product","variations":[{"average_imported_price":1.25e5,"barcode":"104-1","bonus_variations":[],"composite_products":[],"display_id":"SKU-A","fields":[],"id":"ffff3333-ffff-ffff-ffff-ffffffffffff","images":["https://example.com/test.jpg"],"inserted_at":"2025-12-27T06:52:08.615088","is_composite":false,"is_hidden":false,"is_locked":false,"is_removed":false,"is_sell_negative_variation":true,"keyword":null,"last_imported_price":130000,"price_at_counter":0,"product_id":"dddddddd-dddd-4ddd-8ddd-dddddddddddd","remain_quantity":0,"retail_price":155000,"retail_price_after_discount":155000,"total_purchase_price":0,"updated_at":"2026-04-28T14:05:10.539429","variations_warehouses":[{"actual_remain_quantity":0,"batch_position":null,"pending_quantity":0,"remain_quantity":0,"returning_quantity":0,"selling_avg":0.142857142857143,"shelf_position":null,"total_quantity":19,"waiting_quantity":0,"warehouse_id":"11111111-1111-4111-8111-111111111111"}],"videos":null,"weight":2530,"wholesale_price":[]}]},{"categories":[{"id":1228039269,"name":"Test Category"}],"custom_id":"SKU-D","display_id":103,"id":"eeeeeeee-eeee-4eee-8eee-eeeeeeeeeeee","image":null,"inserted_at":"2025-11-25T11:41:23","is_published":null,"is_sell_negative":true,"manipulation_warehouses":["11111111-1111-4111-8111-111111111111"],"materials":[],"measure_group_id":null,"name":"Test Product C","note":null,"note_product":"","product_attributes":[],"supplier_product_ids":[307006934],"tags":[],"type":"product","variations":[{"average_imported_price":1.35e5,"barcode":"103-1","bonus_variations":[],"composite_products":[],"display_id":"SKU-D","fields":[],"id":"ffff4444-ffff-ffff-ffff-ffffffffffff","images":["https://example.com/test.jpg"],"inserted_at":"2025-11-25T11:41:23.653773","is_composite":false,"is_hidden":false,"is_locked":false,"is_removed":false,"is_sell_negative_variation":true,"keyword":null,"last_imported_price":140000,"price_at_counter":0,"product_id":"eeeeeeee-eeee-4eee-8eee-eeeeeeeeeeee","remain_quantity":20,"retail_price":160000,"retail_price_after_discount":160000,"total_purchase_price":2700000,"updated_at":"2026-05-04T10:12:07.910378","variations_warehouses":[{"actual_remain_quantity":20,"batch_position":null,"pending_quantity":0,"remain_quantity":20,"returning_quantity":0,"selling_avg":0.0,"shelf_position":null,"total_quantity":36,"waiting_quantity":0,"warehouse_id":"11111111-1111-4111-8111-111111111111"}],"videos":null,"weight":2911,"wholesale_price":[]}]}],"page_number":1,"page_size":2,"success":true,"total_entries":85,"total_pages":43}